<svg xmlns="http://www.w3.org/2000/svg" xmlns:xlink="http://www.w3.org/1999/xlink" width="24" height="24" viewBox="0 0 24 24">
    <defs>
        <path id="a" d="M20.673 12c0 4.782-3.89 8.672-8.672 8.672S3.33 16.782 3.33 12 7.219 3.328 12 3.328s8.672 3.89 8.672 8.672M12.001 2C6.486 2 2 6.486 2 12s4.486 10 10.001 10c5.514 0 10-4.486 10-10s-4.486-10-10-10m3.263 9.466c.54.498.883 1.207.887 1.996v.152a2.711 2.711 0 0 1-2.71 2.723h-.067l.004.804h-1.749l-.004-.804h-.717l.004.804H9.163l-.003-.804H7.884l-.009-1.749h.868l-.01-2.1-.01-1.75-.008-1.892h-.868l-.008-1.75h1.275l-.004-.983h1.749l.004.983h.717l-.005-.983h1.75l.004.991a2.64 2.64 0 0 1 2.477 2.616v.144a2.598 2.598 0 0 1-.542 1.602zm-4.8-2.62l.009 1.892h2.714a.87.87 0 0 0 .871-.874V9.72a.88.88 0 0 0-.88-.874h-2.714zm3.938 4.768v-.152a.981.981 0 0 0-.98-.975H10.48l.01 2.101H13.434a.97.97 0 0 0 .97-.974z"/>
    </defs>
    <g fill="none" fill-rule="evenodd">
        <mask id="b" fill="#fff">
            <use xlink:href="#a"/>
        </mask>
        <use fill="#000" xlink:href="#a"/>
        <g fill="#fff" mask="url(#b)">
            <path d="M0 0h24v24H0V0z"/>
        </g>
    </g>
</svg>
