<svg xmlns="http://www.w3.org/2000/svg" xmlns:xlink="http://www.w3.org/1999/xlink" width="24" height="24" viewBox="0 0 24 24">
    <defs>
        <path id="a" d="M13.604 12l5.064 5.064a1.134 1.134 0 1 1-1.604 1.604L12 13.604l-5.064 5.064a1.134 1.134 0 1 1-1.604-1.604L10.396 12 5.332 6.936a1.134 1.134 0 1 1 1.604-1.604L12 10.396l5.064-5.064a1.134 1.134 0 1 1 1.604 1.604L13.604 12z"/>
    </defs>
    <g fill="none" fill-rule="evenodd">
        <mask id="b" fill="#fff">
            <use xlink:href="#a"/>
        </mask>
        <use fill="#FFF" transform="matrix(-1 0 0 1 24 0)" xlink:href="#a"/>
        <g fill="#fff" mask="url(#b)">
            <path d="M0 0h24v24H0V0z"/>
        </g>
    </g>
</svg>
