<svg xmlns="http://www.w3.org/2000/svg" xmlns:xlink="http://www.w3.org/1999/xlink" width="24" height="24" viewBox="0 0 24 24">
    <defs>
        <path id="a" d="M19.9 16.927c0-2.517-1.704-4.794-3.968-5.313l-1.531-.346v-.347a4.53 4.53 0 0 0 1.518-2.836l.093-.706c.053-.426.08-.865.08-1.291 0-.173 0-.346-.013-.533a3.803 3.803 0 0 0-1.132-2.516A3.573 3.573 0 0 0 12.443 2c-.932 0-1.824.373-2.503 1.039a3.803 3.803 0 0 0-1.132 2.516 9.26 9.26 0 0 0 .067 1.824l.093.706c.08.613.28 1.185.586 1.705.253.426.572.812.945 1.131v.347l-1.531.346C6.625 12.146 5 14.25 5 16.727v1.97c0 .48.186.946.52 1.292.346.347.798.533 1.278.533h6.151c.626 0 .626-1.012-.08-1.012H6.799a.745.745 0 0 1-.56-.24.86.86 0 0 1-.24-.586v-1.97c0-1.971 1.346-3.715 3.196-4.141l1.918-.44a.5.5 0 0 0 .386-.493v-.985a.475.475 0 0 0-.2-.4 3.327 3.327 0 0 1-.879-.998 3.593 3.593 0 0 1-.452-1.332l-.093-.705c-.067-.546-.094-1.092-.067-1.638.04-.706.333-1.372.825-1.851a2.575 2.575 0 0 1 1.798-.746c.68 0 1.318.267 1.811.746a2.83 2.83 0 0 1 .826 1.85c.013.16.013.32.013.48 0 .4-.027.786-.08 1.172l-.093.706a3.506 3.506 0 0 1-1.332 2.33c-.12.093-.2.24-.2.4v.985c0 .24.16.44.387.492l1.917.44c1.824.413 3.196 2.277 3.196 4.34l.026 1.745c0 .226-.08.44-.24.6a.797.797 0 0 1-.558.239h-2.317a.506.506 0 1 0 0 1.012h2.317c.479 0 .932-.186 1.265-.533.346-.346.532-.812.532-1.305v-1.757z"/>
    </defs>
    <g fill="none" fill-rule="evenodd">
        <mask id="b" fill="#fff">
            <use xlink:href="#a"/>
        </mask>
        <use fill="#000" xlink:href="#a"/>
        <g fill="#fff" mask="url(#b)">
            <path d="M0 0h24v24H0V0z"/>
        </g>
    </g>
</svg>
