<svg xmlns="http://www.w3.org/2000/svg" xmlns:xlink="http://www.w3.org/1999/xlink" width="24" height="24" viewBox="0 0 24 24">
    <defs>
        <path id="a" d="M12.001 2C6.486 2 2 6.486 2 12s4.486 10 10.001 10c5.514 0 10-4.486 10-10s-4.486-10-10-10"/>
        <path id="c" d="M8.503 7.5l3.164 3.165a.709.709 0 0 1-1.002 1.002L7.5 8.503l-3.165 3.164a.709.709 0 0 1-1.002-1.002L6.497 7.5 3.333 4.335a.709.709 0 0 1 1.002-1.002L7.5 6.497l3.165-3.164a.709.709 0 0 1 1.002 1.002L8.503 7.5z"/>
    </defs>
    <g fill="none" fill-rule="evenodd">
        <mask id="b" fill="#fff">
            <use xlink:href="#a"/>
        </mask>
        <use fill="#D8D8D8" xlink:href="#a"/>
        <g fill="#FF4823" mask="url(#b)">
            <path d="M24 0H0v24h24z"/>
        </g>
        <g mask="url(#b)">
            <g transform="translate(4.5 5)">
                <mask id="d" fill="#fff">
                    <use xlink:href="#c"/>
                </mask>
                <use fill="#FFF" transform="matrix(-1 0 0 1 15 0)" xlink:href="#c"/>
                <g mask="url(#d)">
                    <path fill="#FFF" d="M0 0h15v15H0z"/>
                </g>
            </g>
        </g>
    </g>
</svg>
