<svg xmlns="http://www.w3.org/2000/svg" xmlns:xlink="http://www.w3.org/1999/xlink" width="24" height="24" viewBox="0 0 24 24">
    <defs>
        <path id="a" d="M2.688 8.377a.69.69 0 0 1 0-1.377h12.515a.689.689 0 0 1 0 1.377H2.688zm17.872 8.216a.69.69 0 0 1 0 1.377H2.688a.69.69 0 0 1 0-1.377H20.56zM5.41 12.46c0-.38.308-.688.687-.688H20.56a.689.689 0 0 1 0 1.375H6.097a.688.688 0 0 1-.688-.687z"/>
    </defs>
    <g fill="none" fill-rule="evenodd">
        <mask id="b" fill="#fff">
            <use xlink:href="#a"/>
        </mask>
        <use fill="#000" xlink:href="#a"/>
        <g fill="#fff" mask="url(#b)">
            <path d="M0 0h24v24H0V0z"/>
        </g>
    </g>
</svg>
