<svg xmlns="http://www.w3.org/2000/svg" xmlns:xlink="http://www.w3.org/1999/xlink" width="120" height="120" viewBox="0 0 120 120">
    <defs>
        <linearGradient id="b" x1="0%" y1="50%" y2="50%">
            <stop offset="0%" stop-color="#4DDE90"/>
            <stop offset="100%" stop-color="#2FFCB8"/>
        </linearGradient>
        <path id="a" d="M96.102 25.24l13.035-13.036a1.15 1.15 0 0 1 1.626 0l.186.185c.449.45.449 1.178 0 1.627L97.514 27.45c-.15.151-.333.251-.525.3l-.187.187a1.15 1.15 0 0 1-1.626 0l-7.928-7.928a1.15 1.15 0 0 1 0-1.626l.185-.186a1.15 1.15 0 0 1 1.627 0l7.042 7.042zm-23.45 61.684l-1.992-1.8a2 2 0 1 1 2.681-2.967l5.276 4.767h6.736a22.705 22.705 0 0 1-.956-2.882 23.105 23.105 0 0 1-.522-8.803L45.424 43.002a23.091 23.091 0 0 1-8.757 1.021 22.78 22.78 0 0 1-6.64-1.54l-5.622 6.704a20.718 20.718 0 0 1 2.782 6.111c.96 3.537.815 6.717.415 9.045l2.11 1.77L52.46 86.306c.201.18.358.39.47.618H72.65zm-32.587 0h7.064L27.1 69.142l-2.977-2.497a1.999 1.999 0 0 1-.662-1.989c.449-1.915.79-4.912-.132-8.309a16.804 16.804 0 0 0-3.031-6.013 2.001 2.001 0 0 1 .04-2.522l7.585-9.046a2.002 2.002 0 0 1 2.394-.52 18.82 18.82 0 0 0 6.663 1.79 19.097 19.097 0 0 0 8.158-1.167 2.005 2.005 0 0 1 1.99.34l40.186 33.694c.554.464.814 1.19.68 1.9a19.082 19.082 0 0 0 .276 8.236c.346 1.34.845 2.643 1.483 3.885h13.65a2 2 0 0 1 .31-.621l2.995-4.05-72.08-60.435-29.81 35.555 35.248 29.551zm-6.227 0L.715 59.153a2 2 0 0 1-.247-2.818l32.38-38.62a1.995 1.995 0 0 1 2.817-.247l75.054 62.928c.81.679.95 1.872.323 2.722l-2.814 3.806h8.481a2 2 0 0 1 2 2V99.91a2 2 0 0 1-2 2h-10a2 2 0 0 1 0-4h8v-6.986H7.459v6.986h8a2 2 0 0 1 0 4h-10a2 2 0 0 1-2-2V88.924a2 2 0 0 1 2-2h28.38zm5.535-28.853c-.453 0-.909-.153-1.284-.467l-6.728-5.64a2 2 0 0 1 2.571-3.066l6.727 5.64a2 2 0 0 1-1.286 3.533zm16.306 21.185a9.429 9.429 0 0 1-6.087-2.22 9.443 9.443 0 0 1-3.36-6.449 9.442 9.442 0 0 1 2.184-6.935 9.438 9.438 0 0 1 6.447-3.36 9.428 9.428 0 0 1 6.936 2.184 9.442 9.442 0 0 1 3.36 6.448 9.438 9.438 0 0 1-2.184 6.935 9.434 9.434 0 0 1-6.448 3.36 9.67 9.67 0 0 1-.848.037zm.026-15a5.464 5.464 0 0 0-4.225 1.967 5.466 5.466 0 0 0-1.263 4.014 5.46 5.46 0 0 0 1.945 3.733 5.456 5.456 0 0 0 4.015 1.264 5.462 5.462 0 0 0 3.733-1.944 5.469 5.469 0 0 0 1.264-4.016 5.462 5.462 0 0 0-1.946-3.733 5.456 5.456 0 0 0-3.523-1.286z"/>
    </defs>
    <g fill="none" fill-rule="evenodd">
        <mask id="c" fill="#fff">
            <use xlink:href="#a"/>
        </mask>
        <use fill="url(#b)" xlink:href="#a"/>
        <g fill="url(#b)" mask="url(#c)">
            <path d="M0 0h120v120H0z"/>
        </g>
    </g>
</svg>
