<svg xmlns="http://www.w3.org/2000/svg" width="239" height="316" viewBox="0 0 239 316">
    <defs>
        <linearGradient id="a" x1="50.003%" x2="50.003%" y1="86.185%" y2="-5.767%">
            <stop offset="0%" stop-color="#4DDE90"/>
            <stop offset="31%" stop-color="#48E397"/>
            <stop offset="75%" stop-color="#3AF1AA"/>
            <stop offset="100%" stop-color="#2FFCB8"/>
        </linearGradient>
        <linearGradient id="b" x1="34.918%" x2="122.859%" y1="50.008%" y2="50.008%">
            <stop offset="0%" stop-color="#248E4F"/>
            <stop offset="26%" stop-color="#269554"/>
            <stop offset="63%" stop-color="#2DA861"/>
            <stop offset="100%" stop-color="#36C172"/>
        </linearGradient>
        <linearGradient id="c" x1="0%" y1="49.993%" y2="49.993%">
            <stop offset="0%" stop-color="#248E4F"/>
            <stop offset="26%" stop-color="#269554"/>
            <stop offset="63%" stop-color="#2DA861"/>
            <stop offset="100%" stop-color="#36C172"/>
        </linearGradient>
        <linearGradient id="d" x1="-.008%" y1="50%" y2="50%">
            <stop offset="0%" stop-color="#4DDE90"/>
            <stop offset="31%" stop-color="#48E397"/>
            <stop offset="75%" stop-color="#3AF1AA"/>
            <stop offset="100%" stop-color="#2FFCB8"/>
        </linearGradient>
        <linearGradient id="e" x1="-.008%" y1="50%" y2="50%">
            <stop offset="0%" stop-color="#248E4F"/>
            <stop offset="19%" stop-color="#279555"/>
            <stop offset="47%" stop-color="#31A864"/>
            <stop offset="80%" stop-color="#41C77D"/>
            <stop offset="100%" stop-color="#4DDE90"/>
        </linearGradient>
        <linearGradient id="f" x1="0%" x2="100.008%" y1="50%" y2="50%">
            <stop offset="0%" stop-color="#4DDE90"/>
            <stop offset="31%" stop-color="#48E397"/>
            <stop offset="75%" stop-color="#3AF1AA"/>
            <stop offset="100%" stop-color="#2FFCB8"/>
        </linearGradient>
        <linearGradient id="g" x1="13.892%" x2="166.025%" y1="50%" y2="50%">
            <stop offset="0%" stop-color="#2FFCB8"/>
            <stop offset="25%" stop-color="#3AF1AA"/>
            <stop offset="69%" stop-color="#48E397"/>
            <stop offset="100%" stop-color="#4DDE90"/>
        </linearGradient>
        <linearGradient id="h" x1="7.241%" x2="98.374%" y1="49.853%" y2="49.853%">
            <stop offset="0%" stop-color="#248E4F"/>
            <stop offset="26%" stop-color="#269554"/>
            <stop offset="63%" stop-color="#2DA861"/>
            <stop offset="100%" stop-color="#36C172"/>
        </linearGradient>
        <linearGradient id="i" x1="50%" x2="50%" y1="-40.399%" y2="70.794%">
            <stop offset="0%" stop-color="#4DDE90"/>
            <stop offset="31%" stop-color="#48E397"/>
            <stop offset="75%" stop-color="#3AF1AA"/>
            <stop offset="100%" stop-color="#2FFCB8"/>
        </linearGradient>
        <linearGradient id="j" x1="50%" x2="50%" y1="-40.388%" y2="70.8%">
            <stop offset="0%" stop-color="#14A4DB"/>
            <stop offset="20%" stop-color="#1AABDC"/>
            <stop offset="48%" stop-color="#2BBEE0"/>
            <stop offset="81%" stop-color="#46DDE5"/>
            <stop offset="100%" stop-color="#58F2E9"/>
        </linearGradient>
        <linearGradient id="k" x1="49.961%" x2="49.961%" y1="-40.396%" y2="70.807%">
            <stop offset="0%" stop-color="#4DDE90"/>
            <stop offset="31%" stop-color="#48E397"/>
            <stop offset="75%" stop-color="#3AF1AA"/>
            <stop offset="100%" stop-color="#2FFCB8"/>
        </linearGradient>
        <linearGradient id="l" x1="50%" x2="50%" y1="163.993%" y2="-36.959%">
            <stop offset="0%" stop-color="#248E4F"/>
            <stop offset="26%" stop-color="#269554"/>
            <stop offset="63%" stop-color="#2DA861"/>
            <stop offset="100%" stop-color="#36C172"/>
        </linearGradient>
        <linearGradient id="m" x1="-82.325%" x2="113.861%" y1="193.783%" y2="-19.444%">
            <stop offset="0%" stop-color="#248E4F"/>
            <stop offset="26%" stop-color="#269554"/>
            <stop offset="63%" stop-color="#2DA861"/>
            <stop offset="100%" stop-color="#36C172"/>
        </linearGradient>
        <linearGradient id="n" x1="50%" x2="50%" y1="0%" y2="100%">
            <stop offset="10%" stop-color="#248E4F"/>
            <stop offset="27%" stop-color="#34AE69"/>
            <stop offset="50%" stop-color="#4DDE90"/>
            <stop offset="100%" stop-color="#248E4F"/>
        </linearGradient>
        <linearGradient id="o" x1="-175682.301%" x2="-169715.044%" y1="14901.557%" y2="14901.557%">
            <stop offset="10%" stop-color="#248E4F"/>
            <stop offset="27%" stop-color="#34AE69"/>
            <stop offset="50%" stop-color="#4DDE90"/>
            <stop offset="100%" stop-color="#248E4F"/>
        </linearGradient>
        <linearGradient id="p" x1="-162500.877%" x2="-156533.333%" y1="14761.282%" y2="14761.282%">
            <stop offset="10%" stop-color="#248E4F"/>
            <stop offset="27%" stop-color="#34AE69"/>
            <stop offset="50%" stop-color="#4DDE90"/>
            <stop offset="100%" stop-color="#248E4F"/>
        </linearGradient>
        <linearGradient id="q" x1="-173435.965%" x2="-165769.298%" y1="11562.54%" y2="11562.54%">
            <stop offset="10%" stop-color="#248E4F"/>
            <stop offset="27%" stop-color="#34AE69"/>
            <stop offset="50%" stop-color="#4DDE90"/>
            <stop offset="100%" stop-color="#248E4F"/>
        </linearGradient>
        <linearGradient id="r" x1="50%" x2="50%" y1="130.247%" y2="6.173%">
            <stop offset="0%" stop-color="#4DDE90"/>
            <stop offset="31%" stop-color="#48E397"/>
            <stop offset="75%" stop-color="#3AF1AA"/>
            <stop offset="100%" stop-color="#2FFCB8"/>
        </linearGradient>
        <linearGradient id="s" x1="50%" x2="50%" y1="130.247%" y2="6.79%">
            <stop offset="0%" stop-color="#4DDE90"/>
            <stop offset="31%" stop-color="#48E397"/>
            <stop offset="75%" stop-color="#3AF1AA"/>
            <stop offset="100%" stop-color="#2FFCB8"/>
        </linearGradient>
        <linearGradient id="t" x1="49.691%" x2="49.691%" y1="122.233%" y2="10.549%">
            <stop offset="0%" stop-color="#4DDE90"/>
            <stop offset="31%" stop-color="#48E397"/>
            <stop offset="75%" stop-color="#3AF1AA"/>
            <stop offset="100%" stop-color="#2FFCB8"/>
        </linearGradient>
        <linearGradient id="u" x1="50.614%" x2="50.614%" y1="129.631%" y2="6.177%">
            <stop offset="0%" stop-color="#4DDE90"/>
            <stop offset="31%" stop-color="#48E397"/>
            <stop offset="75%" stop-color="#3AF1AA"/>
            <stop offset="100%" stop-color="#2FFCB8"/>
        </linearGradient>
        <linearGradient id="v" x1="-186.42%" x2="-186.42%" y1="75.145%" y2="-47.972%">
            <stop offset="0%" stop-color="#248E4F"/>
            <stop offset="26%" stop-color="#269554"/>
            <stop offset="63%" stop-color="#2DA861"/>
            <stop offset="100%" stop-color="#36C172"/>
        </linearGradient>
        <linearGradient id="w" x1="-187.31%" x2="-187.31%" y1="75.172%" y2="-48.011%">
            <stop offset="0%" stop-color="#248E4F"/>
            <stop offset="26%" stop-color="#269554"/>
            <stop offset="63%" stop-color="#2DA861"/>
            <stop offset="100%" stop-color="#36C172"/>
        </linearGradient>
        <linearGradient id="x" x1="-184.2%" x2="-184.2%" y1="75.158%" y2="-47.98%">
            <stop offset="0%" stop-color="#248E4F"/>
            <stop offset="26%" stop-color="#269554"/>
            <stop offset="63%" stop-color="#2DA861"/>
            <stop offset="100%" stop-color="#36C172"/>
        </linearGradient>
        <linearGradient id="y" x1="-183.09%" x2="-183.09%" y1="75.148%" y2="-47.97%">
            <stop offset="0%" stop-color="#248E4F"/>
            <stop offset="26%" stop-color="#269554"/>
            <stop offset="63%" stop-color="#2DA861"/>
            <stop offset="100%" stop-color="#36C172"/>
        </linearGradient>
        <linearGradient id="z" x1="119.665%" x2="41.942%" y1="-79.591%" y2="76.123%">
            <stop offset="0%" stop-color="#4DDE90"/>
            <stop offset="31%" stop-color="#48E397"/>
            <stop offset="75%" stop-color="#3AF1AA"/>
            <stop offset="100%" stop-color="#2FFCB8"/>
        </linearGradient>
        <linearGradient id="A" x1="50.13%" x2="50.13%" y1="130.128%" y2="6.234%">
            <stop offset="0%" stop-color="#36C172"/>
            <stop offset="21%" stop-color="#35C779"/>
            <stop offset="51%" stop-color="#33D78C"/>
            <stop offset="87%" stop-color="#30F1AB"/>
            <stop offset="100%" stop-color="#2FFCB8"/>
        </linearGradient>
        <linearGradient id="B" x1="49.999%" x2="49.999%" y1="130.158%" y2="6.351%">
            <stop offset="0%" stop-color="#36C172"/>
            <stop offset="21%" stop-color="#35C779"/>
            <stop offset="51%" stop-color="#33D78C"/>
            <stop offset="87%" stop-color="#30F1AB"/>
            <stop offset="100%" stop-color="#2FFCB8"/>
        </linearGradient>
        <linearGradient id="C" x1="50.396%" x2="50.396%" y1="130.158%" y2="6.351%">
            <stop offset="0%" stop-color="#248E4F"/>
            <stop offset="16%" stop-color="#259556"/>
            <stop offset="38%" stop-color="#27A868"/>
            <stop offset="64%" stop-color="#2AC785"/>
            <stop offset="94%" stop-color="#2EF2AF"/>
            <stop offset="100%" stop-color="#2FFCB8"/>
        </linearGradient>
        <linearGradient id="D" x1="50.12%" x2="50.12%" y1="130.214%" y2="6.355%">
            <stop offset="0%" stop-color="#36C172"/>
            <stop offset="21%" stop-color="#35C779"/>
            <stop offset="51%" stop-color="#33D78C"/>
            <stop offset="87%" stop-color="#30F1AB"/>
            <stop offset="100%" stop-color="#2FFCB8"/>
        </linearGradient>
        <linearGradient id="E" x1="50.397%" x2="50.397%" y1="130.173%" y2="6.363%">
            <stop offset="0%" stop-color="#248E4F"/>
            <stop offset="16%" stop-color="#259556"/>
            <stop offset="38%" stop-color="#27A868"/>
            <stop offset="64%" stop-color="#2AC785"/>
            <stop offset="94%" stop-color="#2EF2AF"/>
            <stop offset="100%" stop-color="#2FFCB8"/>
        </linearGradient>
        <linearGradient id="F" x1="50.001%" x2="50.001%" y1="130.409%" y2="6.343%">
            <stop offset="0%" stop-color="#36C172"/>
            <stop offset="21%" stop-color="#35C779"/>
            <stop offset="51%" stop-color="#33D78C"/>
            <stop offset="87%" stop-color="#30F1AB"/>
            <stop offset="100%" stop-color="#2FFCB8"/>
        </linearGradient>
        <linearGradient id="G" x1="50.396%" x2="50.396%" y1="130.555%" y2="6.351%">
            <stop offset="0%" stop-color="#36C172"/>
            <stop offset="21%" stop-color="#35C779"/>
            <stop offset="51%" stop-color="#33D78C"/>
            <stop offset="87%" stop-color="#30F1AB"/>
            <stop offset="100%" stop-color="#2FFCB8"/>
        </linearGradient>
        <linearGradient id="H" x1="56.038%" x2="56.038%" y1="128.841%" y2="3.849%">
            <stop offset="0%" stop-color="#248E4F"/>
            <stop offset="16%" stop-color="#259556"/>
            <stop offset="38%" stop-color="#27A868"/>
            <stop offset="64%" stop-color="#2AC785"/>
            <stop offset="94%" stop-color="#2EF2AF"/>
            <stop offset="100%" stop-color="#2FFCB8"/>
        </linearGradient>
        <linearGradient id="I" x1="99.982%" x2="0%" y1="50%" y2="50%">
            <stop offset="0%" stop-color="#36C172"/>
            <stop offset="21%" stop-color="#35C779"/>
            <stop offset="51%" stop-color="#33D78C"/>
            <stop offset="87%" stop-color="#30F1AB"/>
            <stop offset="100%" stop-color="#2FFCB8"/>
        </linearGradient>
        <linearGradient id="J" x1="100%" x2="0%" y1="50%" y2="50%">
            <stop offset="0%" stop-color="#36C172"/>
            <stop offset="21%" stop-color="#35C779"/>
            <stop offset="51%" stop-color="#33D78C"/>
            <stop offset="87%" stop-color="#30F1AB"/>
            <stop offset="100%" stop-color="#2FFCB8"/>
        </linearGradient>
        <linearGradient id="K" x1="2.707%" x2="90.269%" y1="61.689%" y2="15.808%">
            <stop offset="0%" stop-color="#36C172"/>
            <stop offset="21%" stop-color="#35C779"/>
            <stop offset="51%" stop-color="#33D78C"/>
            <stop offset="87%" stop-color="#30F1AB"/>
            <stop offset="100%" stop-color="#2FFCB8"/>
        </linearGradient>
        <linearGradient id="L" x1="64.767%" x2="44.668%" y1="144.588%" y2="50.591%">
            <stop offset="0%" stop-color="#36C172"/>
            <stop offset="21%" stop-color="#35C779"/>
            <stop offset="51%" stop-color="#33D78C"/>
            <stop offset="87%" stop-color="#30F1AB"/>
            <stop offset="100%" stop-color="#2FFCB8"/>
        </linearGradient>
        <linearGradient id="M" x1="99.982%" x2="0%" y1="50.016%" y2="50.016%">
            <stop offset="0%" stop-color="#36C172"/>
            <stop offset="21%" stop-color="#35C779"/>
            <stop offset="51%" stop-color="#33D78C"/>
            <stop offset="87%" stop-color="#30F1AB"/>
            <stop offset="100%" stop-color="#2FFCB8"/>
        </linearGradient>
        <linearGradient id="N" x1="100%" x2="0%" y1="49.968%" y2="49.968%">
            <stop offset="0%" stop-color="#14A4DB"/>
            <stop offset="20%" stop-color="#1AABDC"/>
            <stop offset="48%" stop-color="#2BBEE0"/>
            <stop offset="81%" stop-color="#46DDE5"/>
            <stop offset="100%" stop-color="#58F2E9"/>
        </linearGradient>
        <linearGradient id="O" x1="100%" x2="0%" y1="50.032%" y2="50.032%">
            <stop offset="0%" stop-color="#4DDE90"/>
            <stop offset="31%" stop-color="#48E397"/>
            <stop offset="75%" stop-color="#3AF1AA"/>
            <stop offset="100%" stop-color="#2FFCB8"/>
        </linearGradient>
        <linearGradient id="P" x1="2.708%" x2="90.267%" y1="61.712%" y2="15.785%">
            <stop offset="0%" stop-color="#4DDE90"/>
            <stop offset="31%" stop-color="#48E397"/>
            <stop offset="75%" stop-color="#3AF1AA"/>
            <stop offset="100%" stop-color="#2FFCB8"/>
        </linearGradient>
        <linearGradient id="Q" x1="99.927%" x2="0%" y1="50.023%" y2="50.023%">
            <stop offset="0%" stop-color="#4DDE90"/>
            <stop offset="31%" stop-color="#48E397"/>
            <stop offset="75%" stop-color="#3AF1AA"/>
            <stop offset="100%" stop-color="#2FFCB8"/>
        </linearGradient>
        <linearGradient id="R" x1="55.661%" x2="35.581%" y1="101.991%" y2="7.994%">
            <stop offset="0%" stop-color="#4DDE90"/>
            <stop offset="31%" stop-color="#48E397"/>
            <stop offset="75%" stop-color="#3AF1AA"/>
            <stop offset="100%" stop-color="#2FFCB8"/>
        </linearGradient>
        <linearGradient id="S" x1="99.927%" x2="0%" y1="49.984%" y2="49.984%">
            <stop offset="0%" stop-color="#4DDE90"/>
            <stop offset="31%" stop-color="#48E397"/>
            <stop offset="75%" stop-color="#3AF1AA"/>
            <stop offset="100%" stop-color="#2FFCB8"/>
        </linearGradient>
        <linearGradient id="T" x1="100%" x2="0%" y1="50%" y2="50%">
            <stop offset="0%" stop-color="#4DDE90"/>
            <stop offset="31%" stop-color="#48E397"/>
            <stop offset="75%" stop-color="#3AF1AA"/>
            <stop offset="100%" stop-color="#2FFCB8"/>
        </linearGradient>
        <linearGradient id="U" x1="58.54%" x2="46.578%" y1="-55.401%" y2="80.087%">
            <stop offset="0%" stop-color="#4DDE90"/>
            <stop offset="31%" stop-color="#48E397"/>
            <stop offset="75%" stop-color="#3AF1AA"/>
            <stop offset="100%" stop-color="#2FFCB8"/>
        </linearGradient>
        <linearGradient id="V" x1="52.611%" x2="46.214%" y1="-15.674%" y2="108.464%">
            <stop offset="0%" stop-color="#4DDE90"/>
            <stop offset="31%" stop-color="#48E397"/>
            <stop offset="75%" stop-color="#3AF1AA"/>
            <stop offset="100%" stop-color="#2FFCB8"/>
        </linearGradient>
        <linearGradient id="W" x1="56.471%" x2="45.882%" y1="-4.119%" y2="104.668%">
            <stop offset="0%" stop-color="#4DDE90"/>
            <stop offset="31%" stop-color="#48E397"/>
            <stop offset="75%" stop-color="#3AF1AA"/>
            <stop offset="100%" stop-color="#2FFCB8"/>
        </linearGradient>
        <linearGradient id="X" x1="60.588%" x2="44.853%" y1="136.874%" y2="25.839%">
            <stop offset="0%" stop-color="#36C172"/>
            <stop offset="21%" stop-color="#35C779"/>
            <stop offset="51%" stop-color="#33D78C"/>
            <stop offset="87%" stop-color="#30F1AB"/>
            <stop offset="100%" stop-color="#2FFCB8"/>
        </linearGradient>
        <linearGradient id="Y" x1="-1.384%" x2="101.233%" y1="49.982%" y2="49.982%">
            <stop offset="0%" stop-color="#4DDE90"/>
            <stop offset="31%" stop-color="#48E397"/>
            <stop offset="75%" stop-color="#3AF1AA"/>
            <stop offset="100%" stop-color="#2FFCB8"/>
        </linearGradient>
        <linearGradient id="Z" x1="-1.19%" x2="101.236%" y1="50.029%" y2="50.029%">
            <stop offset="0%" stop-color="#4DDE90"/>
            <stop offset="31%" stop-color="#48E397"/>
            <stop offset="75%" stop-color="#3AF1AA"/>
            <stop offset="100%" stop-color="#2FFCB8"/>
        </linearGradient>
    </defs>
    <g fill="none" fill-rule="evenodd" transform="translate(9 8)">
        <path fill="#FFF" fill-rule="nonzero" d="M220.48 226.8l-94.8-54.74a24.14 24.14 0 0 0-11.79-2.7 31.61 31.61 0 0 0-15.42 3.85L7.63 225.65c-4.25 2.46-6.63 5.68-6.56 8.85.07 2.48 1.7 4.77 4.58 6.43l94.8 54.73c7 4 19.16 3.51 27.21-1.14l90.84-52.45c4.32-2.49 6.71-5.77 6.55-9-.12-2.44-1.7-4.62-4.57-6.27z" style="mix-blend-mode:multiply"/>
        <path fill="#FFF" fill-rule="nonzero" d="M220.41 209.73L125.61 155a24 24 0 0 0-11.79-2.71 31.79 31.79 0 0 0-15.43 3.85L7.56 208.59C3.31 211 .92 214.27 1 217.44c.07 2.48 1.7 4.76 4.58 6.43l94.8 54.73c7 4 19.16 3.5 27.21-1.15L218.42 225c4.33-2.5 6.72-5.77 6.56-9-.12-2.43-1.7-4.61-4.57-6.27z"/>
        <path fill="#FFF" fill-rule="nonzero" d="M220.48 207.14l-94.8-54.74a24.14 24.14 0 0 0-11.79-2.7 31.61 31.61 0 0 0-15.42 3.85L7.63 206c-4.25 2.45-6.63 5.67-6.56 8.84.07 2.48 1.7 4.77 4.58 6.43l94.8 54.73c7 4 19.16 3.51 27.21-1.14l90.84-52.44c4.32-2.5 6.71-5.78 6.55-9-.12-2.42-1.7-4.63-4.57-6.28z"/>
        <path fill="#FFF" fill-rule="nonzero" d="M153.74 237.26c-26.12 15.05-72.31 11.4-100.93 1.75-30.55-10.3-35-18.17-35.06-27.6 0-14 20.88-22.1 41.29-28.83 28.64-9.43 68.5-15 94.65.1 26.15 15.1 26.18 39.53.05 54.58z" opacity=".39" style="mix-blend-mode:multiply"/>
        <ellipse cx="113.07" cy="206.38" fill="#FFF" fill-rule="nonzero" rx="62.58" ry="36.13"/>
        <ellipse cx="113.07" cy="203.72" fill="#FFF" fill-rule="nonzero" rx="62.58" ry="36.13"/>
        <path fill="#FFF" fill-rule="nonzero" d="M52.81 162v37.62c0 8.92 5.84 17.84 17.62 24.64 23.55 13.6 61.72 13.6 85.27 0 11.69-6.75 17.54-15.58 17.61-24.43V162H52.81z"/>
        <ellipse cx="113.07" cy="160.66" fill="#FFF" fill-rule="nonzero" rx="60.25" ry="34.79"/>
        <path fill="#FFF" fill-rule="nonzero" d="M113 189.48c-14.29 0-28.59-3.14-39.48-9.43-10.58-6.11-16.41-14.24-16.41-22.9 0-8.66 5.83-16.8 16.41-22.91 21.77-12.57 57.19-12.57 79 0 10.59 6.11 16.41 14.25 16.41 22.91s-5.82 16.79-16.4 22.9l-.1-.16.1.16c-10.94 6.29-25.24 9.43-39.53 9.43zm0-64.29c-14.23 0-28.46 3.13-39.29 9.38-10.46 6-16.22 14.06-16.22 22.58 0 8.52 5.76 16.53 16.22 22.57 21.67 12.51 56.92 12.51 78.59 0 10.46-6 16.22-14.05 16.22-22.57s-5.76-16.54-16.22-22.58c-10.85-6.25-25.08-9.38-39.3-9.38z"/>
        <path fill="#FFF" fill-rule="nonzero" d="M61.41 152v3.23c0 7.64 5 15.29 15.11 21.13 20.18 11.65 52.91 11.65 73.09 0 10-5.79 15-13.36 15.1-20.95V152H61.41z"/>
        <ellipse cx="113.07" cy="151.95" fill="#FFF" fill-rule="nonzero" rx="51.69" ry="29.84"/>
        <ellipse cx="112.99" cy="151.95" fill="#FFF" fill-rule="nonzero" opacity=".44" rx="21.44" ry="12.38" style="mix-blend-mode:screen"/>
        <path fill="#FFF" fill-rule="nonzero" d="M124.71 158.1c-6.26 3.61-16.4 3.61-22.65 0s-6.26-9.46 0-13.07c6.26-3.61 16.39-3.62 22.65 0 6.26 3.62 6.29 9.46 0 13.07z" style="mix-blend-mode:screen"/>
        <path fill="#FFF" fill-rule="nonzero" d="M144.68 226.69l.22-.13a3.59 3.59 0 0 0 1.5-2.87v-29.4c0-1.11-.67-1.61-1.5-1.14l-.22.13a3.59 3.59 0 0 0-1.5 2.87v29.4c0 1.11.67 1.62 1.5 1.14z"/>
        <path fill="#FFF" fill-rule="nonzero" d="M144.68 226.69l.22-.13a3.59 3.59 0 0 0 1.5-2.87v-8.9c0-1.1-.67-1.61-1.5-1.13l-.22.13a3.59 3.59 0 0 0-1.5 2.86v8.9c0 1.11.67 1.62 1.5 1.14zM157.54 189.93c0 .33.23.47.52.3.31-.202.503-.54.52-.91 0-.33-.23-.46-.52-.3a1.17 1.17 0 0 0-.52.91zM153.52 192.25c0 .33.24.47.53.3a1.18 1.18 0 0 0 .52-.91c0-.33-.24-.47-.52-.3a1.16 1.16 0 0 0-.53.91zM157.54 194.31c0 .33.23.47.52.3.31-.202.503-.54.52-.91 0-.33-.23-.47-.52-.3a1.15 1.15 0 0 0-.52.91zM153.52 196.62c0 .34.24.47.53.31a1.2 1.2 0 0 0 .52-.91c0-.33-.24-.47-.52-.3a1.14 1.14 0 0 0-.53.9zM200.62 217.33a11.12 11.12 0 0 0 10.08 0c2.78-1.61 2.78-4.21 0-5.82a11.15 11.15 0 0 0-10.08 0c-2.78 1.61-2.78 4.21 0 5.82zM125.11 260.07l18.62-10.75 2.83 1.63-18.63 10.76-2.82-1.64zm-1.74 4.23l2.8-1.61-2.8-1.61-2.79 1.61 2.79 1.61zm-4.65 2.7l2.79-1.61-2.79-1.62-2.8 1.62 2.8 1.61zm-4.24 2.45l2.79-1.61-2.79-1.62-2.8 1.62 2.8 1.61zm17.86-5.19L151 253.5l-2.83-1.63-18.63 10.75 2.8 1.64zm-4.56 2.6l2.79-1.62-2.79-1.61-2.78 1.6 2.78 1.63zm-4.66 2.69l2.8-1.62-2.8-1.61-2.79 1.61 2.79 1.62zm-4.24 2.45l2.8-1.61-2.8-1.61-2.79 1.61 2.79 1.61z"/>
        <path fill="#FFF" fill-rule="nonzero" d="M72.92 40.85h1.14v72.51h-1.14zM154.13 24.75h1.13v67.43h-1.13zM90.79 94.11h1.14v68.03h-1.14zM121.34 0h1.14v87.4h-1.14z" opacity=".67" style="mix-blend-mode:screen"/>
        <circle cx="80.96" cy="66.1" r="1" fill="#FFF" fill-rule="nonzero"/>
        <circle cx="126.52" cy="40.62" r="1" fill="#FFF" fill-rule="nonzero"/>
        <path fill="#FFF" fill-rule="nonzero" d="M136.64 20.35a.81.81 0 1 1-1.61 0 .81.81 0 1 1 1.61 0zM68.45 36.88a.81.81 0 1 1-.8-.8.8.8 0 0 1 .8.8zM156.31 126.51a.81.81 0 1 1-1.62 0 .81.81 0 0 1 1.62 0zM82.1 133.72a.81.81 0 1 1-.81-.81.8.8 0 0 1 .81.81z"/>
        <circle cx="127.33" cy="170.25" r="1" fill="#FFF" fill-rule="nonzero"/>
        <path fill="#FFF" fill-rule="nonzero" d="M78.79 219.76a.74.74 0 0 1-.31-.59v-24.9c0-.22.14-.33.31-.23a.74.74 0 0 1 .31.59v24.86c0 .26-.1.36-.31.27zM81 221a.72.72 0 0 1-.31-.58v-24.88c0-.23.14-.33.31-.23a.74.74 0 0 1 .31.59v24.87c-.02.23-.16.35-.31.23zM83.17 222.28a.74.74 0 0 1-.31-.59V196.8c0-.22.14-.33.31-.23a.72.72 0 0 1 .31.58v24.87c0 .26-.14.36-.31.26zM85.36 223.55a.74.74 0 0 1-.31-.59v-24.89c0-.23.14-.33.31-.24a.74.74 0 0 1 .31.59v24.87c0 .25-.14.36-.31.26zM155.82 39.85A4.24 4.24 0 0 0 154 37.6a3.81 3.81 0 0 0 2.44-.5 3.63 3.63 0 0 0 1.56-1.88 3.49 3.49 0 0 0-.4-3.4 6.78 6.78 0 0 0-2.89-2.28l.82-2.13-2.85-1.1-.81 2.1-1.56-.6.81-2.1-2.85-1.1-.82 2.1-2.69-1-1.1 2.85 2.07.8-3.77 9.78-2.07-.8-1.1 2.85 2.7 1-.82 2.11 2.86 1.1.81-2.11 1.56.6-.85 2.11 2.85 1.1.82-2.12a7.28 7.28 0 0 0 4.19.31 4 4 0 0 0 2.78-2.54 4.25 4.25 0 0 0 .13-2.9zm-6.63-9.17l3.45 1.32a2.54 2.54 0 0 1 1.4 1c.262.441.292.983.08 1.45a1.65 1.65 0 0 1-1.05 1.06 2.55 2.55 0 0 1-1.73-.15l-3.46-1.33 1.31-3.35zM151 42a3.58 3.58 0 0 1-2.14-.26l-3.45-1.33 1.42-3.67 3.45 1.33a3.5 3.5 0 0 1 1.76 1.22 1.62 1.62 0 0 1 .2 1.6A1.71 1.71 0 0 1 151 42zM193.05 110.77a3.85 3.85 0 1 1-3.84-3.84 3.84 3.84 0 0 1 3.84 3.84zM209.84 148.14a1.26 1.26 0 1 1-1.26-1.26 1.25 1.25 0 0 1 1.26 1.26zM182.76 66.9a1.26 1.26 0 1 1-1.25-1.25c.69 0 1.25.56 1.25 1.25zM33.86 164.33a4.17 4.17 0 1 1-4.16-4.16 4.16 4.16 0 0 1 4.16 4.16zM48.29 128.89a1.26 1.26 0 1 1-2.52 0 1.26 1.26 0 0 1 2.52 0zM57.1 63.42a2.68 2.68 0 1 1-5.36 0 2.68 2.68 0 0 1 5.36 0zM19 104.67a1.26 1.26 0 1 1-1.26-1.26 1.25 1.25 0 0 1 1.26 1.26zM165.55 83.14a.52.52 0 0 1-.52.52.52.52 0 1 1 0-1c.272 0 .5.209.52.48zM158.56 94.73L131.4 78.86l-27.42 15.87 27.29 15.75z"/>
        <path fill="#FFF" fill-rule="nonzero" d="M158.6 98.63l-27.28-15.76-27.39 15.7 27.34 15.84z" opacity=".25"/>
        <path fill="#FFF" fill-rule="nonzero" d="M158.6 98.63l-27.33 15.78-27.34-15.84 27.34 43.46z" opacity=".65"/>
        <path fill="#FFF" fill-rule="nonzero" d="M103.93 98.57l27.34 15.84v27.62z" opacity=".5"/>
        <path fill="#FFF" fill-rule="nonzero" d="M131.27 110.48l27.29-15.75-27.29-48.55-27.29 48.55z"/>
        <path fill="#FFF" fill-rule="nonzero" d="M103.98 94.73l27.29-48.55v64.3z"/>
        <path fill="#FFF" fill-rule="nonzero" d="M131.27 110.48l-27.29-15.75 27.29-16.4 27.29 16.4z" opacity=".67" style="mix-blend-mode:multiply"/>
        <path fill="#FFF" fill-rule="nonzero" d="M112.62 42.09l-13.58-7.93-13.71 7.93 13.65 7.88z"/>
        <path fill="#FFF" fill-rule="nonzero" d="M112.64 44.04L99 36.16l-13.69 7.85 13.67 7.92z" opacity=".25"/>
        <path fill="#FFF" fill-rule="nonzero" d="M112.64 44.04l-13.66 7.89-13.67-7.92 13.67 21.73z" opacity=".65"/>
        <path fill="#FFF" fill-rule="nonzero" d="M85.31 44.01l13.67 7.92v13.81z" opacity=".5"/>
        <path fill="#FFF" fill-rule="nonzero" d="M98.98 49.97l13.64-7.88-13.64-24.27-13.65 24.27z"/>
        <path fill="#FFF" fill-rule="nonzero" d="M85.33 42.09l13.65-24.27v32.15z"/>
        <path fill="#FFF" fill-rule="nonzero" d="M98.98 49.97l-13.65-7.88 13.65-8.2 13.64 8.2z" opacity=".67" style="mix-blend-mode:multiply"/>
        <path fill="#FFF" fill-rule="nonzero" d="M84.63 100.28a8.66 8.66 0 0 0-6-1 8 8 0 0 0 3.13-4.11 7.54 7.54 0 0 0-.16-5.06 7.31 7.31 0 0 0-5.27-4.78 14.25 14.25 0 0 0-7.65.41l-1.64-4.45-6 2.19 1.63 4.4-3.26 1.2-1.62-4.4-6 2.19 1.62 4.4-5.51 2.09 2.19 6 4.33-1.59 7.51 20.42-4.32 1.6 2.19 6 5.63-2.06 1.62 4.4 6-2.19-1.62-4.41 3.26-1.19 1.62 4.4 6-2.19-1.72-4.55a15 15 0 0 0 7-5.26 8.2 8.2 0 0 0 .86-7.77 8.71 8.71 0 0 0-3.82-4.69zM61.72 95l7.21-2.65a5.28 5.28 0 0 1 3.58-.32 3.33 3.33 0 0 1 2.13 2.15 3.43 3.43 0 0 1-.2 3.09 5.37 5.37 0 0 1-2.91 2.15l-7.21 2.65-2.6-7.07zm18.41 15.24a7.42 7.42 0 0 1-3.69 2.53l-7.2 2.66-2.83-7.67 7.21-2.66a7.3 7.3 0 0 1 4.42-.52 3.39 3.39 0 0 1 2.5 2.23 3.54 3.54 0 0 1-.41 3.47v-.04z"/>
        <path fill="url(#a)" fill-rule="nonzero" d="M220.48 226.8l-94.8-54.74a24.14 24.14 0 0 0-11.79-2.7 31.61 31.61 0 0 0-15.42 3.85L7.63 225.65c-4.25 2.46-6.63 5.68-6.56 8.85.07 2.48 1.7 4.77 4.58 6.43l94.8 54.73c7 4 19.16 3.51 27.21-1.14l90.84-52.45c4.32-2.49 6.71-5.77 6.55-9-.12-2.44-1.7-4.62-4.57-6.27z" style="mix-blend-mode:multiply"/>
        <path fill="url(#b)" fill-rule="nonzero" d="M220.41 209.73L125.61 155a24 24 0 0 0-11.79-2.71 31.79 31.79 0 0 0-15.43 3.85L7.56 208.59C3.31 211 .92 214.27 1 217.44c.07 2.48 1.7 4.76 4.58 6.43l94.8 54.73c7 4 19.16 3.5 27.21-1.15L218.42 225c4.33-2.5 6.72-5.77 6.56-9-.12-2.43-1.7-4.61-4.57-6.27z"/>
        <path fill="url(#a)" fill-rule="nonzero" d="M220.48 207.14l-94.8-54.74a24.14 24.14 0 0 0-11.79-2.7 31.61 31.61 0 0 0-15.42 3.85L7.63 206c-4.25 2.45-6.63 5.67-6.56 8.84.07 2.48 1.7 4.77 4.58 6.43l94.8 54.73c7 4 19.16 3.51 27.21-1.14l90.84-52.44c4.32-2.5 6.71-5.78 6.55-9-.12-2.42-1.7-4.63-4.57-6.28z"/>
        <path fill="url(#c)" fill-rule="nonzero" d="M153.74 237.26c-26.12 15.05-72.31 11.4-100.93 1.75-30.55-10.3-35-18.17-35.06-27.6 0-14 20.88-22.1 41.29-28.83 28.64-9.43 68.5-15 94.65.1 26.15 15.1 26.18 39.53.05 54.58z" opacity=".39" style="mix-blend-mode:multiply"/>
        <ellipse cx="113.07" cy="206.38" fill="url(#d)" fill-rule="nonzero" rx="62.58" ry="36.13"/>
        <ellipse cx="113.07" cy="203.72" fill="url(#e)" fill-rule="nonzero" rx="62.58" ry="36.13"/>
        <path fill="url(#f)" fill-rule="nonzero" d="M52.81 162v37.62c0 8.92 5.84 17.84 17.62 24.64 23.55 13.6 61.72 13.6 85.27 0 11.69-6.75 17.54-15.58 17.61-24.43V162H52.81z"/>
        <ellipse cx="113.07" cy="160.66" fill="url(#g)" fill-rule="nonzero" rx="60.25" ry="34.79"/>
        <path fill="#FFF" fill-rule="nonzero" d="M113 189.48c-14.29 0-28.59-3.14-39.48-9.43-10.58-6.11-16.41-14.24-16.41-22.9 0-8.66 5.83-16.8 16.41-22.91 21.77-12.57 57.19-12.57 79 0 10.59 6.11 16.41 14.25 16.41 22.91s-5.82 16.79-16.4 22.9l-.1-.16.1.16c-10.94 6.29-25.24 9.43-39.53 9.43zm0-64.29c-14.23 0-28.46 3.13-39.29 9.38-10.46 6-16.22 14.06-16.22 22.58 0 8.52 5.76 16.53 16.22 22.57 21.67 12.51 56.92 12.51 78.59 0 10.46-6 16.22-14.05 16.22-22.57s-5.76-16.54-16.22-22.58c-10.85-6.25-25.08-9.38-39.3-9.38z"/>
        <path fill="url(#h)" fill-rule="nonzero" d="M61.41 152v3.23c0 7.64 5 15.29 15.11 21.13 20.18 11.65 52.91 11.65 73.09 0 10-5.79 15-13.36 15.1-20.95V152H61.41z"/>
        <ellipse cx="113.07" cy="151.95" fill="url(#i)" fill-rule="nonzero" rx="51.69" ry="29.84"/>
        <ellipse cx="112.99" cy="151.95" fill="url(#j)" fill-rule="nonzero" opacity=".44" rx="21.44" ry="12.38" style="mix-blend-mode:screen"/>
        <path fill="url(#k)" fill-rule="nonzero" d="M124.71 158.1c-6.26 3.61-16.4 3.61-22.65 0s-6.26-9.46 0-13.07c6.26-3.61 16.39-3.62 22.65 0 6.26 3.62 6.29 9.46 0 13.07z" style="mix-blend-mode:screen"/>
        <path fill="#FFF" fill-rule="nonzero" d="M144.68 226.69l.22-.13a3.59 3.59 0 0 0 1.5-2.87v-29.4c0-1.11-.67-1.61-1.5-1.14l-.22.13a3.59 3.59 0 0 0-1.5 2.87v29.4c0 1.11.67 1.62 1.5 1.14z"/>
        <path fill="url(#l)" fill-rule="nonzero" d="M144.68 226.69l.22-.13a3.59 3.59 0 0 0 1.5-2.87v-8.9c0-1.1-.67-1.61-1.5-1.13l-.22.13a3.59 3.59 0 0 0-1.5 2.86v8.9c0 1.11.67 1.62 1.5 1.14z"/>
        <path fill="#FFF" fill-rule="nonzero" d="M157.54 189.93c0 .33.23.47.52.3.31-.202.503-.54.52-.91 0-.33-.23-.46-.52-.3a1.17 1.17 0 0 0-.52.91zM153.52 192.25c0 .33.24.47.53.3a1.18 1.18 0 0 0 .52-.91c0-.33-.24-.47-.52-.3a1.16 1.16 0 0 0-.53.91zM157.54 194.31c0 .33.23.47.52.3.31-.202.503-.54.52-.91 0-.33-.23-.47-.52-.3a1.15 1.15 0 0 0-.52.91zM153.52 196.62c0 .34.24.47.53.31a1.2 1.2 0 0 0 .52-.91c0-.33-.24-.47-.52-.3a1.14 1.14 0 0 0-.53.9zM200.62 217.33a11.12 11.12 0 0 0 10.08 0c2.78-1.61 2.78-4.21 0-5.82a11.15 11.15 0 0 0-10.08 0c-2.78 1.61-2.78 4.21 0 5.82z"/>
        <path fill="url(#m)" fill-rule="nonzero" d="M125.11 260.07l18.62-10.75 2.83 1.63-18.63 10.76-2.82-1.64zm-1.74 4.23l2.8-1.61-2.8-1.61-2.79 1.61 2.79 1.61zm-4.65 2.7l2.79-1.61-2.79-1.62-2.8 1.62 2.8 1.61zm-4.24 2.45l2.79-1.61-2.79-1.62-2.8 1.62 2.8 1.61zm17.86-5.19L151 253.5l-2.83-1.63-18.63 10.75 2.8 1.64zm-4.56 2.6l2.79-1.62-2.79-1.61-2.78 1.6 2.78 1.63zm-4.66 2.69l2.8-1.62-2.8-1.61-2.79 1.61 2.79 1.62zm-4.24 2.45l2.8-1.61-2.8-1.61-2.79 1.61 2.79 1.61z"/>
        <path fill="url(#n)" fill-rule="nonzero" d="M.92.85h1.14v72.51H.92z" opacity=".67" style="mix-blend-mode:screen" transform="translate(72 40)"/>
        <path fill="url(#o)" fill-rule="nonzero" d="M.13.75h1.13v67.43H.13z" opacity=".67" style="mix-blend-mode:screen" transform="translate(154 24)"/>
        <path fill="url(#p)" fill-rule="nonzero" d="M.79.11h1.14v68.03H.79z" opacity=".67" style="mix-blend-mode:screen" transform="translate(90 94)"/>
        <path fill="url(#q)" fill-rule="nonzero" d="M.34 0h1.14v87.4H.34z" opacity=".67" style="mix-blend-mode:screen" transform="translate(121)"/>
        <circle cx="80.96" cy="66.1" r="1" fill="url(#r)" fill-rule="nonzero"/>
        <circle cx="126.52" cy="40.62" r="1" fill="url(#s)" fill-rule="nonzero"/>
        <path fill="url(#t)" fill-rule="nonzero" d="M136.64 20.35a.81.81 0 1 1-1.61 0 .81.81 0 1 1 1.61 0z"/>
        <path fill="url(#u)" fill-rule="nonzero" d="M68.45 36.88a.81.81 0 1 1-.8-.8.8.8 0 0 1 .8.8z"/>
        <path fill="url(#s)" fill-rule="nonzero" d="M156.31 126.51a.81.81 0 1 1-1.62 0 .81.81 0 0 1 1.62 0z"/>
        <path fill="#FFF" fill-rule="nonzero" d="M82.1 133.72a.81.81 0 1 1-.81-.81.8.8 0 0 1 .81.81z"/>
        <circle cx="127.33" cy="170.25" r="1" fill="#FFF" fill-rule="nonzero"/>
        <path fill="url(#v)" fill-rule="nonzero" d="M78.79 219.76a.74.74 0 0 1-.31-.59v-24.9c0-.22.14-.33.31-.23a.74.74 0 0 1 .31.59v24.86c0 .26-.1.36-.31.27z"/>
        <path fill="url(#w)" fill-rule="nonzero" d="M81 221a.72.72 0 0 1-.31-.58v-24.88c0-.23.14-.33.31-.23a.74.74 0 0 1 .31.59v24.87c-.02.23-.16.35-.31.23z"/>
        <path fill="url(#x)" fill-rule="nonzero" d="M83.17 222.28a.74.74 0 0 1-.31-.59V196.8c0-.22.14-.33.31-.23a.72.72 0 0 1 .31.58v24.87c0 .26-.14.36-.31.26z"/>
        <path fill="url(#y)" fill-rule="nonzero" d="M85.36 223.55a.74.74 0 0 1-.31-.59v-24.89c0-.23.14-.33.31-.24a.74.74 0 0 1 .31.59v24.87c0 .25-.14.36-.31.26z"/>
        <path fill="url(#z)" fill-rule="nonzero" d="M155.82 39.85A4.24 4.24 0 0 0 154 37.6a3.81 3.81 0 0 0 2.44-.5 3.63 3.63 0 0 0 1.56-1.88 3.49 3.49 0 0 0-.4-3.4 6.78 6.78 0 0 0-2.89-2.28l.82-2.13-2.85-1.1-.81 2.1-1.56-.6.81-2.1-2.85-1.1-.82 2.1-2.69-1-1.1 2.85 2.07.8-3.77 9.78-2.07-.8-1.1 2.85 2.7 1-.82 2.11 2.86 1.1.81-2.11 1.56.6-.85 2.11 2.85 1.1.82-2.12a7.28 7.28 0 0 0 4.19.31 4 4 0 0 0 2.78-2.54 4.25 4.25 0 0 0 .13-2.9zm-6.63-9.17l3.45 1.32a2.54 2.54 0 0 1 1.4 1c.262.441.292.983.08 1.45a1.65 1.65 0 0 1-1.05 1.06 2.55 2.55 0 0 1-1.73-.15l-3.46-1.33 1.31-3.35zM151 42a3.58 3.58 0 0 1-2.14-.26l-3.45-1.33 1.42-3.67 3.45 1.33a3.5 3.5 0 0 1 1.76 1.22 1.62 1.62 0 0 1 .2 1.6A1.71 1.71 0 0 1 151 42z"/>
        <path fill="url(#A)" fill-rule="nonzero" d="M193.05 110.77a3.85 3.85 0 1 1-3.84-3.84 3.84 3.84 0 0 1 3.84 3.84z"/>
        <path fill="url(#B)" fill-rule="nonzero" d="M209.84 148.14a1.26 1.26 0 1 1-1.26-1.26 1.25 1.25 0 0 1 1.26 1.26z"/>
        <path fill="url(#C)" fill-rule="nonzero" d="M182.76 66.9a1.26 1.26 0 1 1-1.25-1.25c.69 0 1.25.56 1.25 1.25z"/>
        <path fill="url(#D)" fill-rule="nonzero" d="M33.86 164.33a4.17 4.17 0 1 1-4.16-4.16 4.16 4.16 0 0 1 4.16 4.16z"/>
        <path fill="url(#E)" fill-rule="nonzero" d="M48.29 128.89a1.26 1.26 0 1 1-2.52 0 1.26 1.26 0 0 1 2.52 0z"/>
        <path fill="url(#F)" fill-rule="nonzero" d="M57.1 63.42a2.68 2.68 0 1 1-5.36 0 2.68 2.68 0 0 1 5.36 0z"/>
        <path fill="url(#G)" fill-rule="nonzero" d="M19 104.67a1.26 1.26 0 1 1-1.26-1.26 1.25 1.25 0 0 1 1.26 1.26z"/>
        <path fill="url(#H)" fill-rule="nonzero" d="M165.55 83.14a.52.52 0 0 1-.52.52.52.52 0 1 1 0-1c.272 0 .5.209.52.48z"/>
        <path fill="url(#I)" fill-rule="nonzero" d="M158.56 94.73L131.4 78.86l-27.42 15.87 27.29 15.75z"/>
        <path fill="url(#J)" fill-rule="nonzero" d="M158.6 98.63l-27.28-15.76-27.39 15.7 27.34 15.84z" opacity=".25"/>
        <path fill="url(#K)" fill-rule="nonzero" d="M158.6 98.63l-27.33 15.78-27.34-15.84 27.34 43.46z" opacity=".65"/>
        <path fill="url(#J)" fill-rule="nonzero" d="M103.93 98.57l27.34 15.84v27.62z" opacity=".5"/>
        <path fill="url(#L)" fill-rule="nonzero" d="M131.27 110.48l27.29-15.75-27.29-48.55-27.29 48.55z"/>
        <path fill="url(#J)" fill-rule="nonzero" d="M103.98 94.73l27.29-48.55v64.3z"/>
        <path fill="url(#M)" fill-rule="nonzero" d="M131.27 110.48l-27.29-15.75 27.29-16.4 27.29 16.4z" opacity=".67" style="mix-blend-mode:multiply"/>
        <path fill="url(#N)" fill-rule="nonzero" d="M112.62 42.09l-13.58-7.93-13.71 7.93 13.65 7.88z"/>
        <path fill="url(#O)" fill-rule="nonzero" d="M112.64 44.04L99 36.16l-13.69 7.85 13.67 7.92z" opacity=".25"/>
        <path fill="url(#P)" fill-rule="nonzero" d="M112.64 44.04l-13.66 7.89-13.67-7.92 13.67 21.73z" opacity=".65"/>
        <path fill="url(#Q)" fill-rule="nonzero" d="M85.31 44.01l13.67 7.92v13.81z" opacity=".5"/>
        <path fill="url(#R)" fill-rule="nonzero" d="M98.98 49.97l13.64-7.88-13.64-24.27-13.65 24.27z"/>
        <path fill="url(#S)" fill-rule="nonzero" d="M85.33 42.09l13.65-24.27v32.15z"/>
        <path fill="url(#T)" fill-rule="nonzero" d="M98.98 49.97l-13.65-7.88 13.65-8.2 13.64 8.2z" opacity=".67" style="mix-blend-mode:multiply"/>
        <path fill="url(#U)" fill-rule="nonzero" d="M84.63 100.28a8.66 8.66 0 0 0-6-1 8 8 0 0 0 3.13-4.11 7.54 7.54 0 0 0-.16-5.06 7.31 7.31 0 0 0-5.27-4.78 14.25 14.25 0 0 0-7.65.41l-1.64-4.45-6 2.19 1.63 4.4-3.26 1.2-1.62-4.4-6 2.19 1.62 4.4-5.51 2.09 2.19 6 4.33-1.59 7.51 20.42-4.32 1.6 2.19 6 5.63-2.06 1.62 4.4 6-2.19-1.62-4.41 3.26-1.19 1.62 4.4 6-2.19-1.72-4.55a15 15 0 0 0 7-5.26 8.2 8.2 0 0 0 .86-7.77 8.71 8.71 0 0 0-3.82-4.69zM61.72 95l7.21-2.65a5.28 5.28 0 0 1 3.58-.32 3.33 3.33 0 0 1 2.13 2.15 3.43 3.43 0 0 1-.2 3.09 5.37 5.37 0 0 1-2.91 2.15l-7.21 2.65-2.6-7.07zm18.41 15.24a7.42 7.42 0 0 1-3.69 2.53l-7.2 2.66-2.83-7.67 7.21-2.66a7.3 7.3 0 0 1 4.42-.52 3.39 3.39 0 0 1 2.5 2.23 3.54 3.54 0 0 1-.41 3.47v-.04z"/>
        <path stroke="url(#V)" stroke-width=".5" d="M188.94 173.67a1.5 1.5 0 0 0-.65 1.14c0 1.13 1.72 2.05 3.83 2.05 2.11 0 3.83-.92 3.83-2.05a1.45 1.45 0 0 0-.54-1.05"/>
        <path stroke="url(#W)" stroke-width=".5" d="M192.16 171.37a3.4 3.4 0 0 0-3.4 3.4v.13a.5.5 0 0 0 .12.31 4.25 4.25 0 0 0 6.58-.12.58.58 0 0 0 .1-.32 3.4 3.4 0 0 0-3.4-3.4z"/>
        <path fill="url(#X)" fill-rule="nonzero" d="M192.16 171.37a3.4 3.4 0 0 0-3.4 3.4v.13a.5.5 0 0 0 .12.31 4.25 4.25 0 0 0 6.58-.12.58.58 0 0 0 .1-.32 3.4 3.4 0 0 0-3.4-3.4z"/>
        <path stroke="url(#Y)" stroke-linecap="round" stroke-linejoin="round" stroke-width=".5" d="M184.62 174.7v.32a7.68 7.68 0 0 0 10.52 7c2.38-1 4-3.42 5-5a14.89 14.89 0 0 1 1.63-2.4c1.34-1.51 2.29-1.7 3.09-3a4.83 4.83 0 0 0 .7-2.86v.17c.01.086.01.174 0 .26"/>
        <path stroke="url(#Z)" stroke-width=".5" d="M205.27 168.16c.207.291.312.643.3 1-.06.8-.89 1.28-1.7 1.85a15.83 15.83 0 0 0-2.7 2.48c-.36.41-.24.32-1.09 1.39a22.18 22.18 0 0 1-2.08 2.47c-1.07.95-4.84 3-9.9.93-.68-.27-3.53-1.63-3.48-3.59a3.49 3.49 0 0 1 1.51-2.63 13.89 13.89 0 0 1 4.21-1.59c1.62-.41 2.42-.63 2.94-.77 1.29-.36 2.67-.73 4.25-1.32 2.85-1 3-1.53 4.41-1.54.45 0 2.48.03 3.33 1.32z"/>
    </g>
</svg>
